[
  "images/ui/mission/parts_common.json_image",
  "images/ui/jewel_counter/parts.json_image",
  "images/ui/album/parts.json_image",
  "images/ui/beginner_mission/parts.json_image",
  "images/ui/box_gasha/parts.json_image",
  "images/ui/character_album/parts.json_image",
  "images/ui/character_birthday_page/parts.json_image",
  "images/ui/character_fan_ranking/parts.png",
  "images/ui/cloth_change/content_parts.json_image",
  "images/ui/comic/parts.json_image",
  "images/ui/common/parts.json_image",
  "images/ui/common/parts_beginner_and_true_end_teaching_button.json_image",
  "images/ui/common/parts_buttons.json_image",
  "images/ui/common/parts_filter.json_image",
  "images/ui/common/parts_filter_category.json_image",
  "images/ui/common/parts_icons.json_image",
  "images/ui/common/parts_idol.json_image",
  "images/ui/common/parts_idol_icon.json_image",
  "images/ui/common/parts_item_content.json_image",
  "images/ui/common/parts_ranking.png",
  "images/ui/common/parts_score_result.json_image",
  "images/ui/common/parts_shop_merchandise.json_image",
  "images/ui/common/parts_skill_list.json_image",
  "images/ui/common/parts_sort_buttons.json_image",
  "images/ui/concert/parts.json_image",
  "images/ui/concert/parts_judge_detail.json_image",
  "images/ui/concert/parts_music.json_image",
  "images/ui/concert/parts_pause.json_image",
  "images/ui/concert/parts_ranking.json_image",
  "images/ui/concert_result/parts.json_image",
  "images/ui/concert_result/parts_effect.json_image ",
  "images/ui/concert_result/parts_fan_meeting.json_image",
  "images/ui/concert_result/parts_status.json_image",
  "images/ui/deprecation/parts.json_image",
  "images/ui/evolution/parts.json_image",
  "images/ui/ex_skill/parts.json_image",
  "images/ui/ex_skill/parts_upgrade.json_image",
  "images/ui/fes/fes_deck.json_image",
  "images/ui/fes/fes_ready.json_image",
  "images/ui/fes/fes_role_icons.json_image",
  "images/ui/fes/fes_trends.json_image",
  "images/ui/fes/parts.json_image",
  "images/ui/fes_match_ranking/parts.json_image",
  "images/ui/fes_result/parts.json_image",
  "images/ui/fes_result/parts_fes_match.json_image",
  "images/ui/fes_result/parts_new_record.json_image",
  "images/ui/fes_tower_advantage/parts.json_image",
  "images/ui/fes_tower_common/parts.json_image",
  "images/ui/fes_tower_concert_result/parts.json_image",
  "images/ui/fes_tower_deck/parts_endurance.json_image",
  "images/ui/fes_tower_item/parts.json_image",
  "images/ui/fes_tower_live_panel/parts.json_image",
  "images/ui/fes_tower_reset/parts_result.json_image",
  "images/ui/fes_tower_top/parts.json_image",
  "images/ui/fes_tower_top/parts_area_select.json_image",
  "images/ui/fes_tower_top/parts_bonus.json_image",
  "images/ui/fes_tower_top/parts_bonus_list_pop.json_image",
  "images/ui/fes_tower_top/parts_extreme_live_select_pop.json_image",
  "images/ui/fes_tower_top/parts_panel_pop.json_image",
  "images/ui/fes_tower_top/parts_panel_select.json_image",
  "images/ui/fes_tower_top/parts_skip.json_image",
  "images/ui/game_event/parts.json_image",
  "images/ui/game_event/parts_button.json_image",
  "images/ui/game_event/parts_icon.json_image",
  "images/ui/game_event/parts_list.json_image",
  "images/ui/gasha/parts.json_image",
  "images/ui/gasha/parts_narrow_gasha_button.json_image",
  "images/ui/gasha/parts_popup.json_image",
  "images/ui/gasha/parts_provide_rate.json_image",
  "images/ui/gasha/parts_scout_ticket.json_image",
  "images/ui/gasha/parts_stamp_card.json_image",
  "images/ui/gasha/parts_step_up.json_image",
  "images/ui/gasha_result/parts.json_image",
  "images/ui/home_deck/parts.json_image",
  "images/ui/home_deck/parts_bg_change_layer.json_image",
  "images/ui/idol_choice/parts.json_image",
  "images/ui/idol_detail/parts.json_image",
  "images/ui/idol_detail/parts_fes.json_image",
  "images/ui/idol_detail/parts_support.json_image",
  "images/ui/idol_detail/parts_trust.json_image",
  "images/ui/idol_list/parts.json_image",
  "images/ui/idol_list/parts_edit_mode.json_image",
  "images/ui/idol_portal/parts.json_image",
  "images/ui/idol_road/parts.json_image",
  "images/ui/init/parts.json_image",
  "images/ui/item/parts.json_image",
  "images/ui/item/parts_content.json_image",
  "images/ui/item/parts_seasonal_present.json_image",
  "images/ui/jewel_purchase/parts.json_image",
  "images/ui/login_bonus/parts.json_image",
  "images/ui/mission/parts.json_image",
  "images/ui/music_select/parts.json_image",
  "images/ui/my_page/parts.json_image",
  "images/ui/my_page/parts_fortune_effect_balloon.json_image",
  "images/ui/notice/parts.json_image",
  "images/ui/option/parts.json_image",
  "images/ui/present_box/parts.json_image",
  "images/ui/present_event/parts.json_image",
  "images/ui/produce_ability/parts.json_image",
  "images/ui/produce_action/gradation/parts.json_image",
  "images/ui/produce_action/parts.json_image",
  "images/ui/produce_action/parts_4th.json_image",
  "images/ui/produce_action/parts_effect.json_image",
  "images/ui/produce_action/parts_event.json_image",
  "images/ui/produce_action/parts_fan_meeting.json_image",
  "images/ui/produce_action/parts_grad.json_image",
  "images/ui/produce_action/parts_support_skill.json_image",
  "images/ui/produce_action/parts_tab_2.json_image",
  "images/ui/produce_action/parts_tab_3.json_image",
  "images/ui/produce_action/parts_wing.json_image",
  "images/ui/produce_area/parts.json_image",
  "images/ui/produce_block/parts.json_image",
  "images/ui/produce_common/parts_header.json_image",
  "images/ui/produce_common/parts_hint.json_image",
  "images/ui/produce_common/parts_hint_pop.json_image",
  "images/ui/produce_common/parts_pyramid.json_image",
  "images/ui/produce_commu/parts_commu.json_image",
  "images/ui/produce_deck/parts_deck_edit.json_image",
  "images/ui/produce_deck/parts_deck_move_copy.json_image",
  "images/ui/produce_ending/parts_ceo_report.json_image",
  "images/ui/produce_ending/parts_ex_skill_reward.json_image",
  "images/ui/produce_ending/parts_fes_idol_birth.json_image",
  "images/ui/produce_ending/parts_fes_idol_birth_effect.json_image",
  "images/ui/produce_ending/parts_reward_trust.json_image",
  "images/ui/produce_ending/parts_true_lesson.json_image",
  "images/ui/produce_event/parts_event.json_image",
  "images/ui/produce_event/parts_promise.json_image",
  "images/ui/produce_helper_support_idol/parts.json_image",
  "images/ui/produce_idea_note/parts.json_image",
  "images/ui/produce_idol_rank/parts_block_result.json_image",
  "images/ui/produce_idol_rank/parts_idea_note_result.json_image",
  "images/ui/produce_idol_rank/parts_idol_rank.json_image",
  "images/ui/produce_idol_rank/parts_music_result.json_image",
  "images/ui/produce_idol_rank/parts_rank_up.json_image",
  "images/ui/produce_item/parts.json_image",
  "images/ui/produce_music_common/parts.json_image",
  "images/ui/produce_music_info/parts.json_image",
  "images/ui/produce_music_select/parts.json_image",
  "images/ui/produce_reporter_event/parts_received_mail.json_image",
  "images/ui/produce_reporter_event/parts_reporter.json_image",
  "images/ui/produce_reporter_event/parts_reporter_appearance.json_image",
  "images/ui/produce_reporter_event/parts_reporter_event_end_cutin.json_image",
  "images/ui/produce_staff_assist_event/parts.json_image",
  "images/ui/produce_staff_assist_event/parts_staff_assist.json_image",
  "images/ui/produce_top/parts.json_image",
  "images/ui/produce_top/parts_4th.json_image",
  "images/ui/produce_top/parts_produce_item_content.json_image",
  "images/ui/produce_trend/parts.json_image",
  "images/ui/profile/parts.json_image",
  "images/ui/raid_concert/parts.json_image",
  "images/ui/raid_concert/parts_audience.json_image",
  "images/ui/raid_deck/parts.json_image",
  "images/ui/raid_result/parts.json_image",
  "images/ui/raid_reward/parts.json_image",
  "images/ui/raid_top/parts.json_image",
  "images/ui/shop/parts_currency_status.json_image",
  "images/ui/shop/parts_monthly_passport.json_image",
  "images/ui/shop/parts_shop_content.json_image",
  "images/ui/skill_board/parts.json_image",
  "images/ui/skin_exchange/parts.json_image",
  "images/ui/special_announce/parts.json_image",
  "images/ui/start/parts.json_image",
  "images/ui/start_and_common/parts.json_image",
  "images/ui/title_setting/parts.json_image",
  "images/ui/training/parts.json_image",
  "images/ui/true_end_teaching/produce/parts.json_image",
  "images/ui/tutorial/parts.json_image",
  "images/ui/update_information/parts_new_idol.json_image",
  "images/ui/work_activity_ready/parts.json_image",
  "images/ui/work_activity_result/parts.json_image",
  "images/ui/work_activity_talk_and_commu/parts.json_image",
  "images/ui/gasha/parts_free_center_gasha_button.json_image",
  "images/ui/gasha/parts_first_run_limited.json_image",
  "images/ui/shop/parts_shop_category_tab.json_image",
  "images/ui/shop/parts_p_desk.json_image",
  "images/ui/producer_desk/parts_note.json_image",
  "images/ui/producer_desk/parts_level.json_image",
  "images/ui/producer_desk/parts.json_image",
  "images/ui/produce_action/gradation/parts_5th.json_image",
  "images/ui/produce_deck/parts_deck_know_how.json_image",
  "images/ui/produce_ending/parts_know_how_book_reward.json_image",
  "images/ui/produce_events/parts.json_image",
  "images/ui/produce_growth/parts_growth_list.json_image",
  "images/ui/produce_top/parts_5th.json_image",
  "images/ui/produce_action/parts_5th.json_image",
  "images/ui/produce_auto_concert/parts.json_image",
  "images/ui/produce_auto_concert_result/parts.json_image",
  "images/ui/fes_tower_live_item_select/parts.json_image",
  "images/ui/produce_action/gradation/parts_action_table.json_image",
  "images/ui/photo/parts.json_image",
  "images/ui/produce_action/parts_tab_1.json_image",  
  "images/ui/home_deck/parts_preset.json_image", 
  "images/ui/produce_ending/parts_ex_skill_and_knowhow_book_reward.json_image",   
  "images/ui/possession_limit_expansion/parts.json_image",
  "images/ui/joint_fes_concert/parts.json_image", 
  "images/ui/joint_fes_concert/parts_result.json_image", 
  "images/ui/joint_fes_deck/parts.json_image", 
  "images/ui/joint_fes_deck/parts_idol_select.json_image", 
  "images/ui/joint_fes_facility/parts.json_image", 
  "images/ui/joint_fes_rankings/parts.json_image", 
  "images/ui/joint_fes_ready/parts.json_image", 
  "images/ui/joint_fes_stage_select/parts_stage_info_pop.json_image", 
  "images/ui/joint_fes_stage_select/parts.json_image",
  "images/ui/joint_fes_top/parts.json_image", 
  "images/ui/joint_fes_trophy/parts.json_image", 
  "images/ui/work_activity_top/parts.json_image", 
  "images/ui/auto_play/parts.json_image", 
  "images/ui/auto_play/parts_skip_pop.json_image", 
  "images/ui/mission/parts_shiny_pass_ad.json_image", 
  "images/ui/character_profile/parts.json_image",  
  "images/ui/mini_game/parts_mini_game_portal.json_image", 
  "images/ui/mini_game/parts_buttons.json_image", 
  "images/ui/idol_list/parts_know_how_book.json_image", 
  "images/ui/shop/parts_vip_level.json_image", 
  "images/ui/produce_ending/parts_reward.json_image", 
  "images/ui/auto_play_result/parts.json_image"
  
]
